{
  "firstName": "Boss",
  "lastName": "Gman",
  "nationalId": 8456,
  "contactNo": 1567,
  "age":77,
  "color":"red",
  "dob":"12-12-12",
  
   "address": 
  {  
  "houseNo": "11A",
    "street": "gopalan",
    "city": "Banglore",
    "zipCode": 1437650
  }
  
 }