{
  "firstname":"Boss",
  "lastname":"Gman",
  "nationalId":"8456",
  "contactNo":1567,
  "age":77,
  "dob":"12-12-12",
  "color":"red",
   "houseNo":"11A",
   "street":"gopalan",
   "city":"Banglore",
   "zipcode":1437650
  
  
  
 }